id;external_id;transaction_operation_type;amount;currency;location;send_time;receive_time
1;foolishly;DEPOSIT;11686.02;BGN;ONLINE;2024-07-05T23:08:42;2024-07-05T23:45:26
2;babysit;CREDIT;25532.92;EUR;OFFICE;2024-07-05T16:53:03;2024-07-05T23:59:05
3;fixed after excitedly;CREDIT;11137.89;USD;ATM;2024-07-05T16:32:47;2024-07-06T11:07:20
4;physically dictate;CREDIT;30807.74;USD;ATM;2024-07-06T02:01:12;2024-07-06T11:40:43
5;informal notwithstanding absent;DEPOSIT;30305.19;USD;ATM;2024-07-06T13:56:42;2024-07-06T06:41:10
6;babyish strategy outlay;TRANSFER;20587.02;EUR;ATM;2024-07-06T13:20:20;2024-07-05T16:54:56
7;dampen yearly ugh;CREDIT;15258.37;EUR;ATM;2024-07-05T23:08:46;2024-07-06T03:41:23
8;aw so mezzanine;CREDIT;21062.85;BGN;ATM;2024-07-06T10:42:27;2024-07-06T15:26:30
9;around lowball;CREDIT;3392.7;BGN;ONLINE;2024-07-06T15:28:56;2024-07-06T05:31:34
10;tram suburban;DEPOSIT;1936.1;USD;ATM;2024-07-06T00:09:05;2024-07-05T22:27:18
