id;name;document_type
1;carelessly;DOCX
2;however fasten;PDF
3;since eek substantial;PDF
4;frosty revascularization;DOCX
5;whoever rescind TV;PDF
6;as;PDF
7;provided talent amid;DOCX
8;tennis when;PDF
9;pesky system busily;DOCX
10;er mop judgementally;DOCX
