id;name;document_extension;document_data;document_data_content_type;document_type;is_orinal_document;document_compression
1;plus;chestnut;../fake-data/blob/hipster.png;image/png;PDF;true;round
2;parched shakily payee;alert checking yum;../fake-data/blob/hipster.png;image/png;PDF;true;encyclopedia
3;exeunt caterpillar except;towards;../fake-data/blob/hipster.png;image/png;PDF;true;airmail
4;furthermore ha like;animated leveret;../fake-data/blob/hipster.png;image/png;DOCX;false;even tenderly skitter
5;near timbale;western;../fake-data/blob/hipster.png;image/png;DOCX;true;lay wherever
6;if deteriorate;instead twin;../fake-data/blob/hipster.png;image/png;DOCX;false;efficiency spicy
7;unwilling orbit;hence as cautiously;../fake-data/blob/hipster.png;image/png;DOCX;false;violently mechanically
8;or probe whereas;ice;../fake-data/blob/hipster.png;image/png;DOCX;true;untimely
9;fearless silver furthermore;barring threshold unabashedly;../fake-data/blob/hipster.png;image/png;DOCX;true;spiff
10;safely stained;recommence looks clutch;../fake-data/blob/hipster.png;image/png;PDF;false;verifiable huzzah plus
